%YAML 1.1
%TAG !u! tag:unity3d.com,2011:
--- !u!1045 &1
EditorBuildSettings:
  m_ObjectHideFlags: 0
  serializedVersion: 2
  m_Scenes:
  - enabled: 1
    path: Assets/Scenes/Launcher.unity
    guid: cfd1aee9625bd274aa64d20fcf6f7c58
  - enabled: 1
    path: Assets/Scenes/Room for 1.unity
    guid: f3532545d989c7840b5dbfbdfcd7a754
  - enabled: 1
    path: Assets/Scenes/Room for 2.unity
    guid: 4bfcd7067b1aabd42b36283deca84ea3
  - enabled: 1
    path: Assets/Scenes/Room for 3.unity
    guid: d8f78ed4878f0b945a8375ef48b03d2b
  - enabled: 1
    path: Assets/Scenes/Room for 4.unity
    guid: bb469e61b83d2194b84ab19775362a25
  m_configObjects: {}
